cpsc420-lab1/build/dump.vcd
$date
	Mon Feb  2 14:59:18 2026
$end
$version
	Icarus Verilog
$end
$timescale
	1s
$end
$scope module imuldiv_DivReqMsgFromBits $end
$var wire 65 ! bits [64:0] $end
$var wire 1 " func $end
$var wire 32 # b [31:0] $end
$var wire 32 $ a [31:0] $end
$upscope $end
$scope module imuldiv_DivReqMsgToBits $end
$var wire 32 % a [31:0] $end
$var wire 32 & b [31:0] $end
$var wire 1 ' func $end
$var wire 65 ( bits [64:0] $end
$upscope $end
$scope module imuldiv_DivReqMsgToStr $end
$var wire 65 ) msg [64:0] $end
$var wire 1 * func $end
$var wire 32 + b [31:0] $end
$var wire 32 , a [31:0] $end
$var parameter 1 - fn_signed $end
$var parameter 1 . fn_unsigned $end
$var reg 160 / full_str [159:0] $end
$var reg 16 0 tiny_str [15:0] $end
$upscope $end
$scope module imuldiv_MulDivReqMsgFromBits $end
$var wire 67 1 bits [66:0] $end
$var wire 3 2 func [2:0] $end
$var wire 32 3 b [31:0] $end
$var wire 32 4 a [31:0] $end
$upscope $end
$scope module imuldiv_MulDivReqMsgToBits $end
$var wire 32 5 a [31:0] $end
$var wire 32 6 b [31:0] $end
$var wire 3 7 func [2:0] $end
$var wire 67 8 bits [66:0] $end
$upscope $end
$scope module imuldiv_MulDivReqMsgToStr $end
$var wire 67 9 msg [66:0] $end
$var wire 3 : func [2:0] $end
$var wire 32 ; b [31:0] $end
$var wire 32 < a [31:0] $end
$var parameter 3 = div $end
$var parameter 3 > divu $end
$var parameter 3 ? mul $end
$var parameter 3 @ rem $end
$var parameter 3 A remu $end
$var reg 160 B full_str [159:0] $end
$var reg 16 C tiny_str [15:0] $end
$upscope $end
$scope module sim $end
$var wire 1 D muldivreq_go $end
$var wire 1 E muldivresp_go $end
$var wire 1 F sink_rdy $end
$var wire 1 G src_rdy $end
$var wire 1 H sink_val $end
$var wire 64 I sink_msg [63:0] $end
$var reg 1 J busy $end
$var reg 1 K clk $end
$var reg 32 L cycle_count [31:0] $end
$var reg 1024 M op_type [1023:0] $end
$var reg 1 N reset $end
$var reg 32 O src_msg_a [31:0] $end
$var reg 32 P src_msg_b [31:0] $end
$var reg 3 Q src_msg_fn [2:0] $end
$var reg 1 R src_val $end
$scope module imuldiv $end
$var wire 1 K clk $end
$var wire 1 S divreq_msg_fn $end
$var wire 1 T divreq_val $end
$var wire 32 U muldivreq_msg_a [31:0] $end
$var wire 32 V muldivreq_msg_b [31:0] $end
$var wire 3 W muldivreq_msg_fn [2:0] $end
$var wire 1 G muldivreq_rdy $end
$var wire 1 R muldivreq_val $end
$var wire 1 F muldivresp_rdy $end
$var wire 1 H muldivresp_val $end
$var wire 1 X mulreq_val $end
$var wire 1 N reset $end
$var wire 1 Y mulresp_val $end
$var wire 64 Z mulresp_msg_result [63:0] $end
$var wire 1 [ mulreq_rdy $end
$var wire 64 \ muldivresp_msg_result [63:0] $end
$var wire 1 ] divresp_val $end
$var wire 64 ^ divresp_msg_result [63:0] $end
$var wire 1 _ divreq_rdy $end
$scope module idiv $end
$var wire 1 K clk $end
$var wire 32 ` divreq_msg_a [31:0] $end
$var wire 32 a divreq_msg_b [31:0] $end
$var wire 1 S divreq_msg_fn $end
$var wire 1 T divreq_val $end
$var wire 1 F divresp_rdy $end
$var wire 1 N reset $end
$var wire 1 b sub_out64 $end
$var wire 1 c sub_mux_sel $end
$var wire 1 d sign_en $end
$var wire 1 e rem_sign_mux_sel $end
$var wire 1 f rem_sign $end
$var wire 1 g is_operator_signed $end
$var wire 1 ] divresp_val $end
$var wire 64 h divresp_msg_result [63:0] $end
$var wire 1 _ divreq_rdy $end
$var wire 1 i div_sign_mux_sel $end
$var wire 1 j div_sign $end
$var wire 1 k counter_is_zero $end
$var wire 1 l cntr_mux_sel $end
$var wire 1 m b_en $end
$var wire 1 n a_mux_sel $end
$var wire 1 o a_en $end
$scope module ctrl $end
$var wire 1 p accepting_requests $end
$var wire 1 K clk $end
$var wire 1 S divreq_msg_fn $end
$var wire 1 T divreq_val $end
$var wire 1 F divresp_rdy $end
$var wire 1 q op_signed_next $end
$var wire 1 N reset $end
$var wire 1 r sending_responses $end
$var wire 1 b sub_out64 $end
$var wire 1 f rem_sign $end
$var wire 1 j div_sign $end
$var wire 1 k counter_is_zero $end
$var parameter 2 s CALC $end
$var parameter 2 t DONE $end
$var parameter 2 u IDLE $end
$var reg 1 o a_en $end
$var reg 1 n a_mux_sel $end
$var reg 1 m b_en $end
$var reg 1 l cntr_mux_sel $end
$var reg 1 i div_sign_mux_sel $end
$var reg 1 _ divreq_rdy $end
$var reg 1 ] divresp_val $end
$var reg 1 g is_operator_signed $end
$var reg 1 v op_signed_reg $end
$var reg 1 e rem_sign_mux_sel $end
$var reg 1 d sign_en $end
$var reg 2 w state [1:0] $end
$var reg 1 c sub_mux_sel $end
$upscope $end
$scope module dpath $end
$var wire 1 o a_en $end
$var wire 1 n a_mux_sel $end
$var wire 1 m b_en $end
$var wire 1 K clk $end
$var wire 1 l cntr_mux_sel $end
$var wire 1 j div_sign $end
$var wire 1 i div_sign_mux_sel $end
$var wire 32 x divreq_msg_a [31:0] $end
$var wire 32 y divreq_msg_b [31:0] $end
$var wire 1 S divreq_msg_fn $end
$var wire 1 g is_operator_signed $end
$var wire 1 f rem_sign $end
$var wire 1 e rem_sign_mux_sel $end
$var wire 1 N reset $end
$var wire 1 d sign_en $end
$var wire 1 c sub_mux_sel $end
$var wire 32 z unsigned_b [31:0] $end
$var wire 32 { unsigned_a [31:0] $end
$var wire 65 | sub_restore [64:0] $end
$var wire 1 b sub_out64 $end
$var wire 65 } sub_out [64:0] $end
$var wire 65 ~ sub_mux_out [64:0] $end
$var wire 65 !" sub_keep [64:0] $end
$var wire 32 "" remainder_number [31:0] $end
$var wire 32 #" remainder_negated [31:0] $end
$var wire 32 $" quotient_number [31:0] $end
$var wire 32 %" quotient_negated [31:0] $end
$var wire 32 &" final_remainder [31:0] $end
$var wire 32 '" final_quotient [31:0] $end
$var wire 64 (" divresp_msg_result [63:0] $end
$var wire 5 )" counter_next [4:0] $end
$var wire 1 k counter_is_zero $end
$var wire 5 *" counter_decrement [4:0] $end
$var wire 32 +" b_message_normalized [31:0] $end
$var wire 65 ," b_initial [64:0] $end
$var wire 65 -" a_shift_out [64:0] $end
$var wire 65 ." a_mux_out [64:0] $end
$var wire 32 /" a_message_normalized [31:0] $end
$var wire 65 0" a_initial [64:0] $end
$var reg 65 1" a_reg [64:0] $end
$var reg 65 2" b_reg [64:0] $end
$var reg 5 3" counter_reg [4:0] $end
$var reg 1 4" div_sign_reg $end
$var reg 1 5" rem_sign_reg $end
$upscope $end
$upscope $end
$scope module imul $end
$var wire 1 K clk $end
$var wire 32 6" mulreq_msg_a [31:0] $end
$var wire 32 7" mulreq_msg_b [31:0] $end
$var wire 1 X mulreq_val $end
$var wire 1 F mulresp_rdy $end
$var wire 1 N reset $end
$var wire 1 8" sign_mux_sel $end
$var wire 1 9" sign_en $end
$var wire 1 :" sign $end
$var wire 1 ;" result_mux_sel $end
$var wire 1 <" result_en $end
$var wire 1 Y mulresp_val $end
$var wire 64 =" mulresp_msg_result [63:0] $end
$var wire 1 [ mulreq_rdy $end
$var wire 1 >" counter_is_zero $end
$var wire 1 ?" cntr_mux_sel $end
$var wire 1 @" b_reg0 $end
$var wire 1 A" b_mux_sel $end
$var wire 1 B" b_en $end
$var wire 1 C" add_mux_sel $end
$var wire 1 D" a_mux_sel $end
$var wire 1 E" a_en $end
$scope module ctrl $end
$var wire 1 F" accepting_requests $end
$var wire 1 K clk $end
$var wire 1 X mulreq_val $end
$var wire 1 F mulresp_rdy $end
$var wire 1 N reset $end
$var wire 1 G" sending_responses $end
$var wire 1 :" sign $end
$var wire 1 >" counter_is_zero $end
$var wire 1 @" b_reg0 $end
$var parameter 2 H" CALC $end
$var parameter 2 I" DONE $end
$var parameter 2 J" IDLE $end
$var reg 1 E" a_en $end
$var reg 1 D" a_mux_sel $end
$var reg 1 C" add_mux_sel $end
$var reg 1 B" b_en $end
$var reg 1 A" b_mux_sel $end
$var reg 1 ?" cntr_mux_sel $end
$var reg 1 [ mulreq_rdy $end
$var reg 1 Y mulresp_val $end
$var reg 1 <" result_en $end
$var reg 1 ;" result_mux_sel $end
$var reg 1 9" sign_en $end
$var reg 1 8" sign_mux_sel $end
$var reg 2 K" state [1:0] $end
$upscope $end
$scope module dpath $end
$var wire 1 E" a_en $end
$var wire 1 D" a_mux_sel $end
$var wire 1 C" add_mux_sel $end
$var wire 1 B" b_en $end
$var wire 1 A" b_mux_sel $end
$var wire 1 K clk $end
$var wire 1 ?" cntr_mux_sel $end
$var wire 32 L" mulreq_msg_a [31:0] $end
$var wire 32 M" mulreq_msg_b [31:0] $end
$var wire 64 N" mulresp_msg_result [63:0] $end
$var wire 1 N reset $end
$var wire 1 <" result_en $end
$var wire 1 ;" result_mux_sel $end
$var wire 1 :" sign $end
$var wire 1 9" sign_en $end
$var wire 1 8" sign_mux_sel $end
$var wire 32 O" unsigned_b [31:0] $end
$var wire 32 P" unsigned_a [31:0] $end
$var wire 64 Q" signed_result [63:0] $end
$var wire 64 R" result_mux_out [63:0] $end
$var wire 64 S" initial_a [63:0] $end
$var wire 64 T" end_mux [63:0] $end
$var wire 1 >" counter_is_zero $end
$var wire 5 U" counter_decrement [4:0] $end
$var wire 32 V" b_shift_out [31:0] $end
$var wire 1 @" b_reg0 $end
$var wire 32 W" b_mux_out [31:0] $end
$var wire 64 X" addition_out [63:0] $end
$var wire 64 Y" add_mux_out [63:0] $end
$var wire 64 Z" a_shift_out [63:0] $end
$var wire 64 [" a_mux_out [63:0] $end
$var reg 64 \" a_reg [63:0] $end
$var reg 32 ]" b_reg [31:0] $end
$var reg 5 ^" counter_reg [4:0] $end
$var reg 64 _" result_reg [63:0] $end
$var reg 1 `" sign_reg $end
$upscope $end
$upscope $end
$upscope $end
$upscope $end
$enddefinitions $end
$comment Show the parameter values. $end
$dumpall
b0 J"
b10 I"
b1 H"
b0 u
b10 t
b1 s
b100 A
b11 @
b0 ?
b10 >
b1 =
0.
1-
$end
#0
$dumpvars
x`"
bx _"
bx ^"
bx ]"
bx \"
b0xxxxxxxxxxxxxxxxxxxxxxxxxxxxxxxx ["
bx0 Z"
bx Y"
bx X"
bx W"
b0xxxxxxxxxxxxxxxxxxxxxxxxxxxxxxx V"
bx U"
bx T"
b0xxxxxxxxxxxxxxxxxxxxxxxxxxxxxxxx S"
b0 R"
bx Q"
bx P"
bx O"
bx N"
bx M"
bx L"
bx K"
0G"
0F"
0E"
0D"
0C"
0B"
0A"
x@"
0?"
x>"
bx ="
0<"
0;"
x:"
09"
08"
bx 7"
bx 6"
x5"
x4"
bx 3"
bx 2"
bx 1"
b0xxxxxxxxxxxxxxxxxxxxxxxxxxxxxxxx 0"
bx /"
b0xxxxxxxxxxxxxxxxxxxxxxxxxxxxxxxx ."
bx0 -"
b0xxxxxxxxxxxxxxxxxxxxxxxxxxxxxxxx00000000000000000000000000000000 ,"
bx +"
bx *"
b11111 )"
bx ("
bx '"
bx &"
bx %"
bx $"
bx #"
bx ""
bx1 !"
bx1 ~
bx }
bx0 |
bx {
bx z
bx y
bx x
bx w
0v
xr
xq
0p
0o
0n
0m
0l
xk
xj
0i
bx h
0g
xf
0e
0d
0c
xb
bx a
bx `
1_
bx ^
0]
bx \
0[
bx Z
0Y
0X
bx W
bx V
bx U
0T
xS
0R
bx Q
bx P
bx O
1N
bx M
b0 L
0K
0J
bx I
0H
0G
1F
0E
0D
b11111100111111 C
b111010101101110011001000110010101100110011010010110111001100101011001000010000001100110011101010110111001100011 B
bz <
bz ;
bz :
bz 9
bz 8
bz 7
bz 6
bz 5
bz 4
bz 3
bz 2
bz 1
b11111100111111 0
b111010101101110011001000110010101100110011010010110111001100101011001000010000001100110011101010110111001100011 /
bz ,
bz +
z*
bz )
bz (
z'
bz &
bz %
bz $
bz #
z"
bz !
$end
#5
b1 ~
1G
0b
b1 !"
b0 |
b0 '"
b0 %"
b0 ^
b0 h
b0 ("
b0 &"
b0 #"
b0 Y"
b0 Z
b0 ="
b0 N"
b0 T"
b0 Q"
b0 V"
0@"
b0 Z"
1[
b0 }
b0 -"
b0 $"
b0 ""
xg
0r
b11111 U"
1>"
b0 ^"
b0 X"
b0 _"
b0 ]"
b0 \"
0:"
0`"
b0 K"
0f
05"
0j
04"
b11111 *"
1k
b0 3"
b0 2"
b0 1"
b0 w
1K
#10
1v
b1010000000011011000001000100 ."
1d
1m
1o
b10011101011011000000000000000000000000000000000 ,"
b100111010110110 +"
b100111010110110 W"
b1010000000011011000001000100 0"
b1010000000011011000001000100 /"
b1010000000011011000001000100 ["
1p
1g
b100111010110110 z
b100111010110110 O"
b1010000000011011000001000100 {
b1010000000011011000001000100 S"
b1010000000011011000001000100 P"
1T
1q
1D
1S
0K
1R
b11111111111111111011000101001010 P
b11111111111111111011000101001010 V
b11111111111111111011000101001010 a
b11111111111111111011000101001010 y
b11111111111111111011000101001010 7"
b11111111111111111011000101001010 M"
b1010000000011011000001000100 O
b1010000000011011000001000100 U
b1010000000011011000001000100 `
b1010000000011011000001000100 x
b1010000000011011000001000100 6"
b1010000000011011000001000100 L"
b11 Q
b11 W
b11100100110010101101101 M
0N
#15
0T
b11110 )"
b10100000000110110000010001000 ."
0G
b10100000000110110000010001000 ~
b10100000000110110000010001000 |
b1010000000011011000001000100 ^
b1010000000011011000001000100 h
b1010000000011011000001000100 ("
b1010000000011011000001000100 '"
b11110101111111100100111110111100 %"
0D
0p
1l
1c
1n
0_
0d
0m
1o
1b
b11111111111111111101100010100101000010100000000110110000010001001 !"
b10100000000110110000010001000 -"
b1010000000011011000001000100 $"
b1 L
0R
1J
b1 w
1j
14"
b11110 *"
0k
b11111 3"
b11111111111111111101100010100101000010100000000110110000010001000 }
b10011101011011000000000000000000000000000000000 2"
b1010000000011011000001000100 1"
1K
#20
0K
#25
b101000000001101100000100010000 ."
b101000000001101100000100010000 ~
b11111111111111111101100010100101000101000000001101100000100010001 !"
b101000000001101100000100010000 |
b10100000000110110000010001000 ^
b10100000000110110000010001000 h
b10100000000110110000010001000 ("
b10100000000110110000010001000 '"
b11101011111111001001111101111000 %"
b11101 )"
b11111111111111111101100010100101000101000000001101100000100010000 }
b101000000001101100000100010000 -"
b10100000000110110000010001000 $"
b11101 *"
b11110 3"
b10100000000110110000010001000 1"
b10 L
1K
#30
0K
#35
b1010000000011011000001000100000 ."
b1010000000011011000001000100000 ~
b11111111111111111101100010100101001010000000011011000001000100001 !"
b1010000000011011000001000100000 |
b101000000001101100000100010000 ^
b101000000001101100000100010000 h
b101000000001101100000100010000 ("
b101000000001101100000100010000 '"
b11010111111110010011111011110000 %"
b11100 )"
b11111111111111111101100010100101001010000000011011000001000100000 }
b1010000000011011000001000100000 -"
b101000000001101100000100010000 $"
b11 L
b11100 *"
b11101 3"
b101000000001101100000100010000 1"
1K
#40
0K
#45
b10100000000110110000010001000000 ."
b10100000000110110000010001000000 ~
b11111111111111111101100010100101010100000000110110000010001000001 !"
b10100000000110110000010001000000 |
b1010000000011011000001000100000 ^
b1010000000011011000001000100000 h
b1010000000011011000001000100000 ("
b1010000000011011000001000100000 '"
b10101111111100100111110111100000 %"
b11011 )"
b11111111111111111101100010100101010100000000110110000010001000000 }
b10100000000110110000010001000000 -"
b1010000000011011000001000100000 $"
b11011 *"
b11100 3"
b1010000000011011000001000100000 1"
b100 L
1K
#50
0K
#55
b101000000001101100000100010000000 ."
b101000000001101100000100010000000 ~
b11111111111111111101100010100101101000000001101100000100010000001 !"
b101000000001101100000100010000000 |
b10100000000110110000010001000000 ^
b10100000000110110000010001000000 h
b10100000000110110000010001000000 ("
b10100000000110110000010001000000 '"
b1011111111001001111101111000000 %"
b11010 )"
b11111111111111111101100010100101101000000001101100000100010000000 }
b101000000001101100000100010000000 -"
b10100000000110110000010001000000 $"
b101 L
b11010 *"
b11011 3"
b10100000000110110000010001000000 1"
1K
#60
0K
#65
b1010000000011011000001000100000000 ."
b1010000000011011000001000100000000 ~
b11111111111111111101100010100110010000000011011000001000100000001 !"
b1010000000011011000001000100000000 |
b1000000001101100000100010000000 '"
b10111111110010011111011110000000 %"
b101000000001101100000100010000000 ^
b101000000001101100000100010000000 h
b101000000001101100000100010000000 ("
b1 &"
b11111111111111111111111111111111 #"
b11001 )"
b11111111111111111101100010100110010000000011011000001000100000000 }
b1010000000011011000001000100000000 -"
b1000000001101100000100010000000 $"
b1 ""
b11001 *"
b11010 3"
b101000000001101100000100010000000 1"
b110 L
1K
#70
0K
#75
b10100000000110110000010001000000000 ."
b10100000000110110000010001000000000 ~
b11111111111111111101100010100111100000000110110000010001000000001 !"
b10100000000110110000010001000000000 |
b10000000011011000001000100000000 '"
b1111111100100111110111100000000 %"
b1010000000011011000001000100000000 ^
b1010000000011011000001000100000000 h
b1010000000011011000001000100000000 ("
b10 &"
b11111111111111111111111111111110 #"
b11000 )"
b11111111111111111101100010100111100000000110110000010001000000000 }
b10100000000110110000010001000000000 -"
b10000000011011000001000100000000 $"
b10 ""
b111 L
b11000 *"
b11001 3"
b1010000000011011000001000100000000 1"
1K
#80
0K
#85
b101000000001101100000100010000000000 ."
b101000000001101100000100010000000000 ~
b11111111111111111101100010101010000000001101100000100010000000001 !"
b101000000001101100000100010000000000 |
b110110000010001000000000 '"
b11111111001001111101111000000000 %"
b10100000000110110000010001000000000 ^
b10100000000110110000010001000000000 h
b10100000000110110000010001000000000 ("
b101 &"
b11111111111111111111111111111011 #"
b10111 )"
b11111111111111111101100010101010000000001101100000100010000000000 }
b101000000001101100000100010000000000 -"
b110110000010001000000000 $"
b101 ""
b10111 *"
b11000 3"
b10100000000110110000010001000000000 1"
b1000 L
1K
#90
0K
#95
b1010000000011011000001000100000000000 ."
b1010000000011011000001000100000000000 ~
b11111111111111111101100010101111000000011011000001000100000000001 !"
b1010000000011011000001000100000000000 |
b1101100000100010000000000 '"
b11111110010011111011110000000000 %"
b101000000001101100000100010000000000 ^
b101000000001101100000100010000000000 h
b101000000001101100000100010000000000 ("
b1010 &"
b11111111111111111111111111110110 #"
b10110 )"
b11111111111111111101100010101111000000011011000001000100000000000 }
b1010000000011011000001000100000000000 -"
b1101100000100010000000000 $"
b1010 ""
b1001 L
b10110 *"
b10111 3"
b101000000001101100000100010000000000 1"
1K
#100
0K
#105
b10100000000110110000010001000000000000 ."
b10100000000110110000010001000000000000 ~
b11111111111111111101100010111001000000110110000010001000000000001 !"
b10100000000110110000010001000000000000 |
b11011000001000100000000000 '"
b11111100100111110111100000000000 %"
b1010000000011011000001000100000000000 ^
b1010000000011011000001000100000000000 h
b1010000000011011000001000100000000000 ("
b10100 &"
b11111111111111111111111111101100 #"
b10101 )"
b11111111111111111101100010111001000000110110000010001000000000000 }
b10100000000110110000010001000000000000 -"
b11011000001000100000000000 $"
b10100 ""
b10101 *"
b10110 3"
b1010000000011011000001000100000000000 1"
b1010 L
1K
#110
0K
#115
b101000000001101100000100010000000000000 ."
b101000000001101100000100010000000000000 ~
b11111111111111111101100011001101000001101100000100010000000000001 !"
b101000000001101100000100010000000000000 |
b110110000010001000000000000 '"
b11111001001111101111000000000000 %"
b10100000000110110000010001000000000000 ^
b10100000000110110000010001000000000000 h
b10100000000110110000010001000000000000 ("
b101000 &"
b11111111111111111111111111011000 #"
b10100 )"
b11111111111111111101100011001101000001101100000100010000000000000 }
b101000000001101100000100010000000000000 -"
b110110000010001000000000000 $"
b101000 ""
b1011 L
b10100 *"
b10101 3"
b10100000000110110000010001000000000000 1"
1K
#120
0K
#125
b1010000000011011000001000100000000000000 ."
b1010000000011011000001000100000000000000 ~
b11111111111111111101100011110101000011011000001000100000000000001 !"
b1010000000011011000001000100000000000000 |
b1101100000100010000000000000 '"
b11110010011111011110000000000000 %"
b101000000001101100000100010000000000000 ^
b101000000001101100000100010000000000000 h
b101000000001101100000100010000000000000 ("
b1010000 &"
b11111111111111111111111110110000 #"
b10011 )"
b11111111111111111101100011110101000011011000001000100000000000000 }
b1010000000011011000001000100000000000000 -"
b1101100000100010000000000000 $"
b1010000 ""
b10011 *"
b10100 3"
b101000000001101100000100010000000000000 1"
b1100 L
1K
#130
0K
#135
b10100000000110110000010001000000000000000 ."
b10100000000110110000010001000000000000000 ~
b11111111111111111101100101000101000110110000010001000000000000001 !"
b10100000000110110000010001000000000000000 |
b11011000001000100000000000000 '"
b11100100111110111100000000000000 %"
b1010000000011011000001000100000000000000 ^
b1010000000011011000001000100000000000000 h
b1010000000011011000001000100000000000000 ("
b10100000 &"
b11111111111111111111111101100000 #"
b10010 )"
b11111111111111111101100101000101000110110000010001000000000000000 }
b10100000000110110000010001000000000000000 -"
b11011000001000100000000000000 $"
b10100000 ""
b1101 L
b10010 *"
b10011 3"
b1010000000011011000001000100000000000000 1"
1K
#140
0K
#145
b101000000001101100000100010000000000000000 ."
b101000000001101100000100010000000000000000 ~
b11111111111111111101100111100101001101100000100010000000000000001 !"
b101000000001101100000100010000000000000000 |
b110110000010001000000000000000 '"
b11001001111101111000000000000000 %"
b10100000000110110000010001000000000000000 ^
b10100000000110110000010001000000000000000 h
b10100000000110110000010001000000000000000 ("
b101000000 &"
b11111111111111111111111011000000 #"
b10001 )"
b11111111111111111101100111100101001101100000100010000000000000000 }
b101000000001101100000100010000000000000000 -"
b110110000010001000000000000000 $"
b101000000 ""
b10001 *"
b10010 3"
b10100000000110110000010001000000000000000 1"
b1110 L
1K
#150
0K
#155
b1010000000011011000001000100000000000000000 ."
b1010000000011011000001000100000000000000000 ~
b11111111111111111101101100100101011011000001000100000000000000001 !"
b1010000000011011000001000100000000000000000 |
b1101100000100010000000000000000 '"
b10010011111011110000000000000000 %"
b101000000001101100000100010000000000000000 ^
b101000000001101100000100010000000000000000 h
b101000000001101100000100010000000000000000 ("
b1010000000 &"
b11111111111111111111110110000000 #"
b10000 )"
b11111111111111111101101100100101011011000001000100000000000000000 }
b1010000000011011000001000100000000000000000 -"
b1101100000100010000000000000000 $"
b1010000000 ""
b1111 L
b10000 *"
b10001 3"
b101000000001101100000100010000000000000000 1"
1K
#160
0K
#165
b10100000000110110000010001000000000000000000 ."
b10100000000110110000010001000000000000000000 ~
b11111111111111111101110110100101110110000010001000000000000000001 !"
b10100000000110110000010001000000000000000000 |
b11011000001000100000000000000000 '"
b100111110111100000000000000000 %"
b1010000000011011000001000100000000000000000 ^
b1010000000011011000001000100000000000000000 h
b1010000000011011000001000100000000000000000 ("
b10100000000 &"
b11111111111111111111101100000000 #"
b1111 )"
b11111111111111111101110110100101110110000010001000000000000000000 }
b10100000000110110000010001000000000000000000 -"
b11011000001000100000000000000000 $"
b10100000000 ""
b1111 *"
b10000 3"
b1010000000011011000001000100000000000000000 1"
b10000 L
1K
#170
0K
#175
b101000000001101100000100010000000000000000000 ."
b101000000001101100000100010000000000000000000 ~
b11111111111111111110001010100110101100000100010000000000000000001 !"
b101000000001101100000100010000000000000000000 |
b10110000010001000000000000000000 '"
b1001111101111000000000000000000 %"
b10100000000110110000010001000000000000000000 ^
b10100000000110110000010001000000000000000000 h
b10100000000110110000010001000000000000000000 ("
b101000000001 &"
b11111111111111111111010111111111 #"
b1110 )"
b11111111111111111110001010100110101100000100010000000000000000000 }
b101000000001101100000100010000000000000000000 -"
b10110000010001000000000000000000 $"
b101000000001 ""
b10001 L
b1110 *"
b1111 3"
b10100000000110110000010001000000000000000000 1"
1K
#180
0K
#185
b1010000000011011000001000100000000000000000000 ."
b1010000000011011000001000100000000000000000000 ~
b11111111111111111110110010101000011000001000100000000000000000001 !"
b1010000000011011000001000100000000000000000000 |
b1100000100010000000000000000000 '"
b10011111011110000000000000000000 %"
b101000000001101100000100010000000000000000000 ^
b101000000001101100000100010000000000000000000 h
b101000000001101100000100010000000000000000000 ("
b1010000000011 &"
b11111111111111111110101111111101 #"
b1101 )"
b11111111111111111110110010101000011000001000100000000000000000000 }
b1010000000011011000001000100000000000000000000 -"
b1100000100010000000000000000000 $"
b1010000000011 ""
b1101 *"
b1110 3"
b101000000001101100000100010000000000000000000 1"
b10010 L
1K
#190
0K
#195
b10101011110000010001000000000000000000001 ."
1l
0c
1n
1o
0_
b10101011110000010001000000000000000000001 ~
0b
b10101011110000010001000000000000000000001 !"
b10100000000110110000010001000000000000000000000 |
b11000001000100000000000000000000 '"
b111110111100000000000000000000 %"
b1010000000011011000001000100000000000000000000 ^
b1010000000011011000001000100000000000000000000 h
b1010000000011011000001000100000000000000000000 ("
b10100000000110 &"
b11111111111111111101011111111010 #"
b1100 )"
b10101011110000010001000000000000000000000 }
b10100000000110110000010001000000000000000000000 -"
b11000001000100000000000000000000 $"
b10100000000110 ""
b10011 L
b1100 *"
b1101 3"
b1010000000011011000001000100000000000000000000 1"
1K
#200
0K
#205
b101010111100000100010000000000000000000010 ."
1c
1l
1n
1o
0_
b101010111100000100010000000000000000000010 ~
1b
b11111111111111111101100111111100100000100010000000000000000000011 !"
b101010111100000100010000000000000000000010 |
b10000010001000000000000000000001 '"
b1111101110111111111111111111111 %"
b10101011110000010001000000000000000000001 ^
b10101011110000010001000000000000000000001 h
b10101011110000010001000000000000000000001 ("
b101010111 &"
b11111111111111111111111010101001 #"
b1011 )"
b11111111111111111101100111111100100000100010000000000000000000010 }
b101010111100000100010000000000000000000010 -"
b10000010001000000000000000000001 $"
b101010111 ""
b1011 *"
b1100 3"
b10101011110000010001000000000000000000001 1"
b10100 L
1K
#210
0K
#215
b1010101111000001000100000000000000000000100 ."
b1010101111000001000100000000000000000000100 ~
b11111111111111111101101101010100000001000100000000000000000000101 !"
b1010101111000001000100000000000000000000100 |
b100010000000000000000000010 '"
b11111011101111111111111111111110 %"
b101010111100000100010000000000000000000010 ^
b101010111100000100010000000000000000000010 h
b101010111100000100010000000000000000000010 ("
b1010101111 &"
b11111111111111111111110101010001 #"
b1010 )"
b11111111111111111101101101010100000001000100000000000000000000100 }
b1010101111000001000100000000000000000000100 -"
b100010000000000000000000010 $"
b1010101111 ""
b10101 L
b1010 *"
b1011 3"
b101010111100000100010000000000000000000010 1"
1K
#220
0K
#225
b10101011110000010001000000000000000000001000 ."
b10101011110000010001000000000000000000001000 ~
b11111111111111111101111000000011000010001000000000000000000001001 !"
b10101011110000010001000000000000000000001000 |
b1000100000000000000000000100 '"
b11110111011111111111111111111100 %"
b1010101111000001000100000000000000000000100 ^
b1010101111000001000100000000000000000000100 h
b1010101111000001000100000000000000000000100 ("
b10101011110 &"
b11111111111111111111101010100010 #"
b1001 )"
b11111111111111111101111000000011000010001000000000000000000001000 }
b10101011110000010001000000000000000000001000 -"
b1000100000000000000000000100 $"
b10101011110 ""
b1001 *"
b1010 3"
b1010101111000001000100000000000000000000100 1"
b10110 L
1K
#230
0K
#235
b101010111100000100010000000000000000000010000 ."
b101010111100000100010000000000000000000010000 ~
b11111111111111111110001101100001000100010000000000000000000010001 !"
b101010111100000100010000000000000000000010000 |
b10001000000000000000000001000 '"
b11101110111111111111111111111000 %"
b10101011110000010001000000000000000000001000 ^
b10101011110000010001000000000000000000001000 h
b10101011110000010001000000000000000000001000 ("
b101010111100 &"
b11111111111111111111010101000100 #"
b1000 )"
b11111111111111111110001101100001000100010000000000000000000010000 }
b101010111100000100010000000000000000000010000 -"
b10001000000000000000000001000 $"
b101010111100 ""
b10111 L
b1000 *"
b1001 3"
b10101011110000010001000000000000000000001000 1"
1K
#240
0K
#245
b1010101111000001000100000000000000000000100000 ."
b1010101111000001000100000000000000000000100000 ~
b11111111111111111110111000011101001000100000000000000000000100001 !"
b1010101111000001000100000000000000000000100000 |
b100010000000000000000000010000 '"
b11011101111111111111111111110000 %"
b101010111100000100010000000000000000000010000 ^
b101010111100000100010000000000000000000010000 h
b101010111100000100010000000000000000000010000 ("
b1010101111000 &"
b11111111111111111110101010001000 #"
b111 )"
b11111111111111111110111000011101001000100000000000000000000100000 }
b1010101111000001000100000000000000000000100000 -"
b100010000000000000000000010000 $"
b1010101111000 ""
b111 *"
b1000 3"
b101010111100000100010000000000000000000010000 1"
b11000 L
1K
#250
0K
#255
b1110010101010001000000000000000000001000001 ."
1l
0c
1n
1o
0_
b1110010101010001000000000000000000001000001 ~
0b
b1110010101010001000000000000000000001000001 !"
b10101011110000010001000000000000000000001000000 |
b1000100000000000000000000100000 '"
b10111011111111111111111111100000 %"
b1010101111000001000100000000000000000000100000 ^
b1010101111000001000100000000000000000000100000 h
b1010101111000001000100000000000000000000100000 ("
b10101011110000 &"
b11111111111111111101010100010000 #"
b110 )"
b1110010101010001000000000000000000001000000 }
b10101011110000010001000000000000000000001000000 -"
b1000100000000000000000000100000 $"
b10101011110000 ""
b11001 L
b110 *"
b111 3"
b1010101111000001000100000000000000000000100000 1"
1K
#260
0K
#265
b11100101010100010000000000000000000010000010 ."
1c
1l
1n
1o
0_
b11100101010100010000000000000000000010000010 ~
1b
b11111111111111111101111111001111100010000000000000000000010000011 !"
b11100101010100010000000000000000000010000010 |
b10001000000000000000000001000001 '"
b1110111111111111111111110111111 %"
b1110010101010001000000000000000000001000001 ^
b1110010101010001000000000000000000001000001 h
b1110010101010001000000000000000000001000001 ("
b11100101010 &"
b11111111111111111111100011010110 #"
b101 )"
b11111111111111111101111111001111100010000000000000000000010000010 }
b11100101010100010000000000000000000010000010 -"
b10001000000000000000000001000001 $"
b11100101010 ""
b101 *"
b110 3"
b1110010101010001000000000000000000001000001 1"
b11010 L
1K
#270
0K
